%YAML 1.1
%TAG !u! tag:unity3d.com,2011:
--- !u!114 &11400000
MonoBehaviour:
  m_ObjectHideFlags: 0
  m_CorrespondingSourceObject: {fileID: 0}
  m_PrefabInstance: {fileID: 0}
  m_PrefabAsset: {fileID: 0}
  m_GameObject: {fileID: 0}
  m_Enabled: 1
  m_EditorHideFlags: 0
  m_Script: {fileID: 11500000, guid: 9f986fcd6abce3d4aaff1ca39a89fa8e, type: 3}
  m_Name: 2PoisonEnemy
  m_EditorClassIdentifier: 
  name: Currupt
  uiText: 2 Poison Monster
  icon: {fileID: 21300000, guid: ad83b142c7f216c48b6d0380b03a1795, type: 3}
  damageAmount: 2
